[gd_scene load_steps=4 format=2]

[ext_resource path="res://res/images/Block_1.png" type="Texture" id=1]

[sub_resource type="SpriteFrames" id=1]
animations = [ {
"frames": [ ExtResource( 1 ) ],
"loop": true,
"name": "idle",
"speed": 5.0
} ]

[sub_resource type="RectangleShape2D" id=2]
extents = Vector2( 15.9903, 7.99561 )

[node name="Root" type="Node2D"]

[node name="Block" type="RigidBody2D" parent="." groups=[
"Blocks",
]]
mass = 1000.0
gravity_scale = 0.0
can_sleep = false
linear_damp = 0.0
angular_damp = 0.0

[node name="AnimatedSprite" type="AnimatedSprite" parent="Block"]
frames = SubResource( 1 )
animation = "idle"

[node name="CollisionShape2D" type="CollisionShape2D" parent="Block"]
shape = SubResource( 2 )
