[gd_scene load_steps=5 format=2]

[ext_resource path="res://res/images/block_2.png" type="Texture" id=1]
[ext_resource path="res://scripts/Block_2.gd" type="Script" id=2]

[sub_resource type="SpriteFrames" id=1]
animations = [ {
"frames": [ ExtResource( 1 ) ],
"loop": true,
"name": "idle",
"speed": 5.0
} ]

[sub_resource type="RectangleShape2D" id=2]
extents = Vector2( 4, 4 )

[node name="Root" type="Node2D"]

[node name="Block_2" type="RigidBody2D" parent="." groups=[
"Block_2_Falling",
]]
collision_layer = 2
collision_mask = 2
contacts_reported = 5
contact_monitor = true
angular_velocity = 3.0
angular_damp = 0.0
script = ExtResource( 2 )

[node name="AnimatedSprite" type="AnimatedSprite" parent="Block_2"]
frames = SubResource( 1 )
animation = "idle"

[node name="CollisionShape2D" type="CollisionShape2D" parent="Block_2"]
shape = SubResource( 2 )

[connection signal="body_entered" from="Block_2" to="Block_2" method="_on_Block_2_body_entered"]
