[gd_scene load_steps=4 format=2]

[ext_resource path="res://res/images/Paddle.png" type="Texture" id=1]

[sub_resource type="SpriteFrames" id=1]
animations = [ {
"frames": [ ExtResource( 1 ) ],
"loop": true,
"name": "idle",
"speed": 5.0
} ]

[sub_resource type="RectangleShape2D" id=2]
extents = Vector2( 64.2779, 4.0522 )

[node name="Root" type="Node2D"]

[node name="Paddle" type="KinematicBody2D" parent="."]
collision_layer = 3
collision_mask = 3

[node name="AnimatedSprite" type="AnimatedSprite" parent="Paddle"]
frames = SubResource( 1 )
animation = "idle"

[node name="CollisionShape2D" type="CollisionShape2D" parent="Paddle"]
shape = SubResource( 2 )
