[gd_resource type="DynamicFont" load_steps=2 format=2]

[ext_resource path="res://res/fonts/connection_ii/ConnectionII.otf" type="DynamicFontData" id=1]

[resource]
size = 48
font_data = ExtResource( 1 )
